80 [140270691243776] INFO mrtehelpers.mrteenv <> - Product libs directory: /opt/intel/vtune_profiler_2020.1.0.607630/lib64
80 [140270691243776] INFO mrtehelpers.mrteenv <> - File mask: amplxe_samplingmrte_clrprof*
96 [140270691243776] INFO mrtehelpers.mrteenv <> - File name: libamplxe_samplingmrte_clrprof_1.0.so
96 [140270691243776] INFO mrtehelpers.mrteenv <> - File mask: amplxe_samplingmrte_clrprof*
105 [140270691243776] INFO mrtehelpers.mrteenv <> - File name: libamplxe_samplingmrte_clrprof_1.0.so
